<?xml version="1.0" encoding="iso-8859-1"?>
<!-- Generator: Adobe Illustrator 16.0.0, SVG Export Plug-In . SVG Version: 6.00 Build 0)  -->
<!DOCTYPE svg PUBLIC "-//W3C//DTD SVG 1.1//EN" "http://www.w3.org/Graphics/SVG/1.1/DTD/svg11.dtd">
<svg version="1.1" id="Capa_1" xmlns="http://www.w3.org/2000/svg" xmlns:xlink="http://www.w3.org/1999/xlink" x="0px" y="0px"
	 width="541.784px" height="541.784px" viewBox="0 0 541.784 541.784" style="enable-background:new 0 0 541.784 541.784;"
	 xml:space="preserve">
<g>
	<g>
		<path d="M503.823,170.175c22.338-15.912,24.174-54.774,9.18-76.5c-14.076-20.502-45.288-33.966-67.932-23.868
			c4.59-70.992-118.729-96.696-145.351-33.048c-21.726-46.818-129.131-52.938-124.541,5.202
			c-22.032-26.622-56.916-41.31-88.74-21.726c-26.622,16.524-34.272,53.856-15.3,78.948C5.655,89.085-13.317,200.775,37.785,215.157
			c-25.092,15.606-44.064,44.676-30.6,74.052c11.934,26.622,44.982,44.981,73.134,36.107c-3.06,51.103,71.298,70.992,95.166,24.48
			c-4.59,15.912,7.344,33.354,22.032,39.474c17.442,7.344,38.862,1.53,50.184-13.464c18.36,55.08,119.952,30.906,126.99-18.972
			c17.441,17.441,55.386,15.605,74.052,3.978c24.174-15.3,31.518-45.594,18.054-68.238c33.66,5.814,67.932-13.157,71.604-49.877
			C542.073,213.015,530.445,181.803,503.823,170.175z M460.983,279.723c-1.53,0-2.754,0.306-3.673,1.224
			c-2.447-1.224-6.119,1.53-4.283,4.284c13.464,19.278,9.18,48.96-10.099,62.424c-21.113,14.688-52.938,10.099-67.319-11.628
			c-1.225-1.836-2.754-2.447-4.284-2.447c-2.448-5.202-10.404-1.225-9.18,3.978c7.344,30.906-27.234,51.102-52.326,54.468
			c-24.786,3.672-38.25-7.344-55.386-23.256c-2.142-1.836-5.202-1.53-6.732,0.306c-1.224-0.918-2.754-1.224-4.284-0.306
			c-11.016,6.426-22.95,13.158-36.414,10.098c-15.606-3.365-22.644-15.911-24.174-30.6c-0.306-3.366-3.672-4.284-5.814-2.142
			c0.306-0.612,0.612-1.225,0.918-1.836c0.918-2.755-2.754-3.673-4.284-1.836c-10.404,14.382-30.6,24.174-48.348,20.808
			c-22.338-4.284-33.354-23.868-35.802-44.982c-0.612-4.283-7.344-6.12-8.262-1.224l0,0c-25.092,0.918-52.632-8.568-62.73-33.66
			c-11.934-29.375,12.852-46.511,31.212-64.259c3.978-3.672-0.612-9.18-5.202-7.65c-19.278-12.24-27.846-37.332-24.174-59.67
			c4.59-27.234,24.786-41.922,51.408-43.452c3.978-0.306,5.814-6.12,2.754-7.956c0.918-0.306,1.836-1.53,1.224-2.754
			c-8.874-24.48-5.508-53.856,19.278-67.626c29.988-16.524,52.02,4.284,74.358,21.726c3.366,2.754,7.344,0.918,8.568-2.142
			c2.142,0.612,4.896-0.918,5.202-3.672c3.978-34.578,41.004-36.414,67.014-28.152c20.502,6.426,32.436,18.666,42.534,37.332
			c2.754,5.202,11.016,2.754,11.016-3.06v-0.306c0-0.306,0.306-0.306,0.306-0.612c12.853-30.6,52.326-42.534,82.926-34.272
			c30.906,8.568,44.982,34.884,43.452,64.872c-0.306,0.306-0.611,0.612-0.611,0.918c-1.53,2.142,0,4.896,1.836,5.814
			c2.754,3.06,9.18,2.142,10.403-2.448c0.307-0.612,0.307-1.53,0.612-2.142c21.42-10.098,49.266,0.918,61.2,21.726
			c14.076,25.092-0.612,44.37-18.666,60.588c-4.59,4.284,0.306,11.322,5.813,10.098c0.307,0,0.612-0.306,0.918-0.306
			c23.868,10.404,35.496,35.19,34.578,61.2C524.325,273.603,491.888,281.559,460.983,279.723z"/>
		<path d="M502.292,437.312c1.53-6.12,0-13.77-1.836-18.972c-3.366-8.568-9.792-16.218-18.054-20.196
			c-16.524-7.65-35.496,0-44.064,14.688c-11.628-12.547-30.294-18.36-45.288-7.65c-12.546,8.874-14.382,25.092-7.344,37.026
			c-16.218,7.038-23.256,28.764-16.218,44.676c9.485,21.114,33.966,26.01,54.162,19.278c-4.896,18.666,9.485,37.332,30.294,35.496
			c18.054-1.53,30.906-17.748,32.436-34.578c5.508,3.06,12.546,3.978,18.666,3.06c13.158-1.836,23.868-11.322,29.07-23.256
			C544.521,463.017,527.691,436.089,502.292,437.312z M522.794,481.07c-6.731,14.382-24.479,22.338-35.802,8.568
			c-3.979-4.896-10.404,0.612-9.486,5.508c0,0.612,0.307,1.224,0.612,1.836c-4.284,11.322-8.568,25.092-21.114,28.152
			c-5.813,1.53-13.158,0.612-16.83-4.59c-4.284-6.12-2.448-14.688-4.284-21.727c-0.918-3.366-5.201-4.284-7.649-1.836
			c-15.606,1.225-34.578,1.53-44.37-13.158c-8.874-13.157,0.306-26.622,11.934-33.354c5.202-3.061,2.448-10.098-2.754-10.404
			c-5.202-11.934-0.918-26.315,12.853-30.294c12.546-3.366,20.808,5.508,29.376,12.853c0.611,1.224,1.836,1.836,3.06,2.447
			c0.612,0.612,1.225,0.918,1.836,1.53c2.754,1.836,5.814-1.836,4.59-4.59c0,0,0,0,0-0.306c6.732-12.547,22.339-20.196,35.496-12.24
			c5.814,3.672,9.792,10.098,11.017,16.523c1.224,5.509-0.918,10.404,0.306,15.912c0.612,2.143,2.142,2.754,3.979,2.754
			c0.611,0.307,1.224,0.612,1.836,0.612C516.981,444.045,531.056,463.017,522.794,481.07z"/>
		<path d="M195.375,76.233c-8.262,0.612-16.218,1.224-24.48,1.836c-7.65,0.612-15.3,1.224-22.032,4.896
			c-5.508,3.06-4.896,10.71,0,13.77c4.59,3.06,10.098,4.284,15.912,5.202c-3.06,23.868-0.918,49.572,0.306,73.746
			c-3.672,0.306-7.344,0.918-10.71,2.448c-9.18,3.672-9.18,14.994,0,18.666c6.426,2.754,13.464,2.754,20.196,2.754
			s14.076,0.612,20.808-1.224c10.71-3.06,10.71-18.666,0-21.726c-1.836-0.612-3.672-0.918-5.508-1.224
			c0-24.174,1.53-50.184-2.754-74.052c3.978-0.612,7.956-1.224,11.628-1.836C211.899,97.653,208.839,75.621,195.375,76.233z"/>
		<path d="M213.429,228.009c-6.732-6.12-17.442-1.836-17.748,7.344c-0.306,7.038,1.53,16.83-7.038,20.196
			c-6.426,2.448-16.83-5.814-14.994-12.546c2.448-8.262-7.65-16.83-14.994-11.628c-11.628,8.262-10.404,23.562-2.754,34.578
			c5.202,7.649,13.464,13.157,22.644,15.3c-2.754,10.403-4.284,21.113-3.978,31.823c0.306,10.099,9.792,14.383,17.442,12.547
			c0,0.306-0.306,0.306-0.306,0.611c1.836-0.306,3.672-1.224,5.202-2.754c2.754-2.142,4.896-5.508,4.59-10.098
			c-0.306-11.017-1.224-22.338-2.754-33.66c7.65-3.366,14.076-9.485,17.748-16.83C221.691,251.877,222.915,236.577,213.429,228.009z
			"/>
		<path d="M326.037,265.035c-1.53-14.076-7.65-30.294-20.196-38.25c-9.485-6.12-21.114-7.038-30.294-1.53
			c-6.119,0-12.852,2.448-18.359,6.12c-11.934,8.568-16.524,23.256-18.054,37.332c-2.754,26.928,11.934,56.609,42.534,55.691
			C312.573,323.48,329.403,292.881,326.037,265.035z M275.241,298.694c-11.016-4.59-11.934-20.195-10.404-30.293
			c0.918-7.038,3.672-14.076,8.874-19.278c0.918-0.918,1.836-1.836,3.061-2.448c1.529,0.306,3.06,0.306,4.59,0
			C312.878,237.495,307.676,311.853,275.241,298.694z"/>
		<path d="M414.165,248.817c-0.918-11.628-0.918-23.868-6.732-34.272c-4.283-7.956-15.605-5.508-18.054,2.448
			c-6.731,19.89,11.017,53.244-6.426,69.155c-25.398,23.256-24.174-50.795-24.786-60.281c-0.306-8.568-12.546-12.852-16.83-4.59
			c-15.605,29.988-9.18,100.062,38.25,94.247c18.054-2.142,30.294-18.054,33.966-34.884
			C416,269.931,415.083,259.221,414.165,248.817z"/>
		<path d="M304.004,155.487c-5.508-3.978-11.628-7.344-16.83-11.322c-0.306-0.306-0.611,0-0.611,0
			c-4.284-3.366-8.568-6.426-12.547-10.098c-0.611-0.306-1.224,0.306-0.611,0.612c4.284,3.978,8.567,8.262,13.77,11.016
			c5.202,3.978,10.404,8.262,16.524,11.016C304.004,157.323,304.922,156.099,304.004,155.487z"/>
		<path d="M293.907,136.821c-4.59-3.366-9.181-6.732-13.158-10.71c-0.918-0.918-2.142,0.306-1.224,1.224
			c3.978,4.284,8.262,8.568,13.464,11.016C293.907,138.657,294.518,137.433,293.907,136.821z"/>
		<path d="M295.437,129.783c-3.979-2.142-7.956-3.978-11.322-7.038c-0.918-0.918-2.448,0.612-1.53,1.53
			c3.366,3.366,7.344,5.814,11.935,7.344C295.743,131.619,296.355,130.395,295.437,129.783z"/>
		<path d="M301.25,120.603c-4.59-2.142-8.874-4.59-12.852-7.956c-1.225-0.918-2.755,0.612-1.53,1.53
			c3.978,3.672,8.568,6.426,13.77,8.262C301.556,122.745,302.168,121.215,301.25,120.603z"/>
		<path d="M306.758,116.625c-5.508-2.754-10.71-5.508-15.3-9.486c-1.224-0.918-3.06,0.612-1.836,1.836
			c4.896,3.978,10.404,7.65,16.218,9.486C307.065,118.767,307.676,117.237,306.758,116.625z"/>
		<path d="M317.468,170.175c-0.611,0.918-16.218-10.404-17.441-11.628c-0.612-0.306-0.918,0-1.225,0.612
			c-4.59-2.448-8.874-5.508-13.158-8.568c-0.306-0.306-0.918,0.306-0.611,0.612c0.306,0.306,0.918,0.918,1.224,1.224
			c0,0.306,0.307,0,0.307,0c3.672,3.06,7.649,5.814,11.934,7.956c0.306,0,0.612,0,0.612-0.306c4.896,3.672,9.792,7.65,15.3,11.322
			c1.53,1.224,3.978,1.836,4.284-0.918C318.999,169.563,318.081,169.563,317.468,170.175z"/>
		<path d="M311.96,144.471c-6.12-3.366-11.934-5.814-17.136-10.404c-0.918-0.918-2.448,0.612-1.53,1.53
			c5.202,4.59,11.322,8.874,18.054,10.404C312.266,146.001,312.878,144.777,311.96,144.471z"/>
		<path d="M332.462,148.449c-6.12-3.366-11.628-6.12-16.83-11.016c-0.918-0.918-2.142,0-2.142,0.918
			c-4.284-2.754-8.874-5.508-13.158-8.568c-0.918-0.612-2.142,0.918-0.918,1.836c5.202,3.978,10.71,8.262,16.83,10.404
			c0.306,0,0.612,0,0.612,0c4.283,3.672,9.485,7.038,14.993,8.262C332.768,150.591,333.38,149.061,332.462,148.449z"/>
		<path d="M334.298,144.777c-4.896-3.366-9.792-6.426-14.382-10.404c-0.612-0.306-0.918-0.306-1.53,0
			c-5.813-3.672-11.628-7.038-17.136-11.016c-1.224-0.918-2.448,1.224-1.224,2.142c5.813,4.284,12.239,8.874,18.972,11.934
			c4.284,3.672,8.874,7.344,13.77,9.486C334.605,147.225,335.523,145.695,334.298,144.777z"/>
		<path d="M321.447,128.865c-4.59-3.366-10.099-5.814-14.688-9.18c-0.918-0.612-2.142,0.918-1.224,1.53
			c4.59,3.366,9.792,7.65,15.3,9.18C321.752,130.395,322.058,129.477,321.447,128.865z"/>
		<path d="M385.707,101.019c-12.852-26.622-57.222-32.13-66.708-5.508c-3.672-6.732-10.71-11.934-18.054-14.688
			c-15.301-5.202-30.906,1.836-39.78,14.382c-25.704,36.108,12.851,86.598,50.795,92.412c0.918,0.306,1.836-0.306,2.448-0.918
			c1.224,2.754,3.978,4.59,7.649,3.366C352.046,178.437,404.678,139.575,385.707,101.019z M345.926,89.085L345.926,89.085
			c4.284,3.366,9.181,6.732,14.382,8.262c2.448,2.448,4.896,4.59,7.345,6.732l0,0c-4.591-3.672-11.935-8.568-13.771-5.508
			c0-0.306,0-0.306,0-0.612c-0.306-0.306-0.611-0.918-0.918-1.224c-0.306-0.306-0.612-0.306-1.224-0.306
			c-3.366-2.448-7.038-4.896-10.404-7.344C342.56,89.085,344.397,89.085,345.926,89.085z M292.071,91.227
			c2.754,1.836,5.508,3.978,8.262,5.814c0,0,0,0.306,0.306,0.306c2.448,2.448,5.202,4.59,8.263,6.426
			c0.611,0.918,1.224,1.53,1.529,2.448c-3.06-2.142-6.426-4.284-9.792-6.12c0.307-0.306,0.612-1.224,0-1.53
			c-3.978-2.754-7.956-5.202-11.934-7.344C289.928,90.921,291.153,91.227,292.071,91.227z M372.855,131.007
			c-4.591-3.366-9.181-6.426-13.771-9.792c-1.53-1.224-3.978,0.918-2.142,2.142c4.59,3.672,9.18,7.65,14.382,10.404
			c-0.307,0.612-0.918,1.53-1.225,2.142l-0.306,0.306c0,0,0-0.306-0.306-0.306c-0.612-0.306-1.225-0.612-1.836-0.918
			c-1.225-0.612-2.448-1.224-3.979-2.142c-2.448-1.53-4.896-3.06-7.344-4.59c-1.53-0.918-3.06,1.53-1.53,2.448
			c3.979,2.754,7.956,5.508,12.546,7.344c0.307,0.306,0.612,0.306,0.918,0.306c-0.918,1.224-1.529,2.448-2.447,3.366
			c-2.755-1.53-5.814-2.754-8.568-3.978c-3.06-1.53-6.12-3.672-9.18-5.508c-1.225-0.918-2.448,1.224-1.225,2.142
			c4.896,3.672,11.322,7.956,17.442,9.18c-0.918,0.918-1.836,2.142-2.448,3.06c-0.612,0.612-1.224,1.224-1.836,1.836
			c0,0,0,0,0-0.306c-5.814-2.448-10.71-4.284-15.3-8.874c-1.225-1.224-3.061,0.612-1.836,1.836
			c3.978,4.284,9.792,8.262,15.605,8.874c-1.529,1.53-3.06,3.06-4.59,4.59c-5.508-3.366-11.934-5.813-17.748-8.262
			c-0.306,0-0.918,0.306-0.611,0.612c1.224,1.53,2.447,2.754,3.978,3.978c0.612,0.306,1.224-0.306,0.612-0.918
			c-0.612-0.612-1.53-1.224-2.143-1.836c4.59,2.448,9.486,5.202,14.076,7.344c-1.224,0.918-2.142,1.836-3.366,2.754
			c-4.59-2.754-9.18-4.59-13.77-7.344c-0.918-0.612-1.836,0.918-0.918,1.53c3.978,2.754,8.262,5.508,13.158,7.038
			c-1.225,0.918-2.448,2.142-3.673,3.06c-3.978-1.836-7.649-3.672-11.016-6.426c-0.918-0.918-2.448,0.612-1.53,1.53
			c3.061,2.448,6.732,4.896,10.71,6.426c-1.224,0.612-2.142,1.53-3.365,2.142c-4.591-2.142-8.568-3.366-12.24-7.038h-0.306
			c0,0,0-0.306-0.307-0.306c-5.813-3.366-11.628-6.426-16.83-10.71c-0.306-0.306-0.611-0.306-0.918,0
			c-0.611-0.612-0.918-1.224-1.53-1.53c-0.611-0.612-1.529,0-1.529,0.612c-5.508-3.06-10.71-6.426-15.3-10.404
			c-0.918-0.918-2.143,0-2.448,0.918c-3.672-3.06-7.956-6.12-11.628-8.874c-0.918-0.612-1.836,0.306-1.225,1.224
			c5.202,4.284,10.099,9.18,15.912,12.546c0.612,0.306,0.918-0.306,0.918-0.612c5.202,3.978,11.017,7.65,17.137,10.098
			c0.611,0.306,1.224-0.306,1.224-0.918c4.284,3.672,9.18,7.038,14.382,9.18c0,0.306,0,0.612,0.306,1.224
			c3.061,3.06,7.345,5.814,11.629,6.732c-1.53,0.918-3.061,1.836-4.896,2.754c-2.754-0.918-5.508-2.142-7.956-3.366
			c0-0.306,0-0.612-0.306-0.612c-5.814-3.672-11.017-7.038-15.912-11.934c-0.918-0.918-2.143,0.306-1.225,1.224
			c3.061,3.366,6.427,6.426,10.099,8.874c0,0.306,0,0.612,0.306,1.224c3.366,2.754,7.344,5.202,11.628,6.426
			c-2.754,1.224-5.508,2.754-8.262,3.672c-2.448-0.918-4.896-1.836-7.344-2.754c-4.59-3.366-9.486-6.732-13.771-10.71
			c-0.918-0.612-2.142,0.612-1.224,1.224c3.672,3.366,7.649,6.12,11.628,8.874c0,0.306,0,0.918,0.612,1.224
			c0.918,0.306,1.529,0.612,2.447,0.918l0.307,0.306c0.306,0,0.306,0,0.611,0c1.53,0.612,3.366,1.224,4.896,1.836
			c-2.142,1.224-3.366,3.366-3.672,5.508c-9.181-10.098-21.114-17.136-30.906-26.316c3.672,2.448,7.65,5.202,11.322,7.65
			c0.611,0.612,1.224-0.612,0.611-1.224c-3.978-2.754-7.956-5.508-11.934-7.956c-0.612-0.306-0.918,0.306-0.918,0.612
			c-4.59-4.284-8.568-9.18-11.322-15.3c3.978,3.06,7.956,6.426,12.24,9.18c0.612,0.612,1.53-0.612,0.918-1.224
			c-4.284-3.366-8.262-6.426-12.545-9.792c-0.306-0.306-0.918,0-0.918,0.306c-0.612-1.224-1.224-2.448-1.836-3.978
			c-0.306-0.612-0.306-1.224-0.306-2.142c1.224,1.224,2.448,2.448,3.672,3.672c0.918,0.612,1.836-0.306,1.224-1.224
			c-1.835-1.836-3.671-3.672-5.507-5.202c-0.306-1.224-0.612-2.754-0.918-3.979c2.448,2.142,4.59,4.284,7.038,6.426
			c0.611,0.612,1.836-0.306,1.224-1.224c-2.754-2.754-5.507-5.202-8.261-7.65c0-1.224,0-2.142,0-3.366
			c2.754,2.754,5.507,5.202,9.179,6.426c0.918,0.306,1.225-0.918,0.612-1.224c-3.366-2.448-6.731-4.896-9.486-7.65
			c0-1.53,0.306-2.754,0.612-4.284c3.672,3.366,7.343,6.426,11.627,8.874c0.918,0.306,1.836-0.612,0.918-1.224
			c-3.978-3.672-7.956-7.038-11.934-10.404c0.306-0.918,0.612-1.53,0.918-2.142c3.672,3.366,7.649,6.732,11.934,8.568
			c0.306,0,0.612,0,0.918-0.306l0,0c5.202,4.284,10.71,8.262,16.83,11.322c0.918,0.612,1.836-0.918,0.918-1.53
			c-5.508-3.672-11.016-7.038-16.218-11.016c-0.307-0.306-0.612-0.306-0.918,0c0,0,0,0,0-0.306
			c-3.672-3.672-7.956-6.426-11.628-9.792c0.306-0.306,0.612-0.918,0.612-1.224c4.283,3.366,8.567,6.426,13.157,9.486
			c0.612,0.306,1.53-0.612,0.918-1.224c-4.284-3.366-8.874-6.426-13.158-9.792c0.612-0.918,1.225-1.53,1.836-2.448
			c4.284,3.978,8.874,7.956,13.771,10.71c0.918,0.306,1.836-0.612,1.224-1.53c-4.59-3.672-9.485-7.038-13.77-10.71
			c0.918-0.918,1.53-1.53,2.448-2.448c3.672,3.06,7.037,6.12,11.321,8.568c1.225,0.612,2.448-0.918,1.53-1.836
			c-3.366-2.754-6.732-5.508-10.098-8.568c0.306-0.306,0.918-0.612,1.224-0.612c3.672,3.366,7.956,6.732,12.24,8.874
			c0,0.306,0,0.918,0.306,1.224c4.59,3.366,9.486,7.344,14.994,9.792c-0.306,0.306-0.612,0.918,0,1.53
			c5.202,4.59,11.322,9.486,18.054,11.628c1.225,0.306,1.53-1.224,0.612-1.836c-4.896-3.672-10.404-6.426-15.3-10.098l0,0
			c0.918,0.306,1.836-0.918,0.918-1.836c-4.896-3.978-10.404-6.732-15.606-10.404c0-0.306,0-0.306-0.306-0.612
			c-2.448-2.448-5.508-3.978-8.262-6.12c-1.836-1.224-3.366-2.754-4.896-3.978c0.612-0.306,1.225-0.306,1.836-0.612
			c4.284,2.448,8.263,5.202,12.853,7.344c-0.612,0.612-0.918,1.53,0,2.142c4.59,3.06,8.874,6.426,13.77,8.874
			c0,0.306,0,0.918,0.306,1.224c0.612,0.612,1.225,0.918,1.837,1.53c0.611,0.612,0.918,1.224,1.529,1.224
			c3.979,3.06,8.263,6.426,12.853,7.956c-0.612,0.306-0.918,0.918-0.612,1.53c3.979,4.896,9.792,9.18,15.912,10.098
			c1.224,0.306,1.836-1.53,0.612-2.142c-5.814-2.142-10.71-4.59-14.994-9.18c0,0,0,0,0.306,0c0.918,0.306,1.836-0.918,0.918-1.836
			c-2.142-2.142-5.202-3.366-7.65-5.202c-1.224-0.918-2.447-1.836-3.672-2.754c0.307-0.306,0.612-0.612,0.918-0.918
			c0.612,0,1.225,0,1.836,0c2.448,2.448,5.509,4.284,8.874,5.508c-0.611,0.612-0.918,1.53,0,2.142
			c3.673,3.06,7.345,5.814,11.322,7.956c3.061,1.836,6.732,4.59,10.099,3.06c0.918-0.306,1.224-1.836,0-2.142
			c-7.038-1.836-13.465-7.038-19.278-11.016c0.306-0.306,0-0.612-0.306-0.918c-3.366-1.53-6.12-3.06-8.874-5.508
			c0.611-0.612,1.224-1.53,1.224-2.754v-0.306c3.06,2.448,6.426,4.284,10.098,5.202c0,0.612,0.307,0.918,0.612,1.224
			c5.202,3.672,11.016,7.65,17.442,8.568c1.224,0,1.224-1.53,0.611-1.836c-5.202-3.672-11.016-5.814-16.218-9.486
			c-0.612-0.306-1.224-0.306-1.53,0c-3.672-1.836-7.344-3.672-10.403-6.12c0.306-1.224,0.611-2.142,0.918-3.366
			c3.365,3.06,7.038,6.12,11.016,8.262c0.918,0.612,2.448-0.612,1.53-1.53c-0.612-0.918-1.53-1.836-2.143-2.754
			c-0.306-0.612-1.224-0.306-1.224,0.306c-2.754-2.142-5.508-4.284-8.262-6.732c0.306-0.612,0.611-0.918,0.918-1.53
			c4.284,3.366,8.874,6.732,13.464,9.792c0,0,0,0,0.306,0c-0.306,0.306-0.306,0.918,0.306,1.224
			c4.896,3.06,10.404,8.262,16.524,9.486c0.306,0,0.918,0,1.224-0.306c0,0.612,0,0.918,0.307,1.53
			c2.448,1.836,4.896,3.672,7.344,5.202c1.53,1.224,3.366,2.754,5.202,3.978C373.161,129.783,373.161,130.395,372.855,131.007z
			 M374.997,126.417c-3.06-2.754-11.322-7.65-12.546-8.262c-0.612-0.306-1.225-0.306-1.53,0.306c0-0.306,0.306-0.306,0.306-0.612
			c0-1.224-0.306-1.53-0.918-2.448c-0.611-0.612-1.529-0.306-1.836,0.306c-4.896-1.836-9.792-5.508-14.075-7.956l0,0
			c0-0.306,0.306-0.306,0.306-0.612c0-1.53,0-1.224-0.612-3.06c-0.306-1.224-1.836-0.612-1.836,0.306
			c-3.672-3.06-7.649-5.814-11.628-8.568c0.612-0.612,1.224-1.224,1.53-1.836c4.896,3.672,10.098,7.344,15.912,9.486
			c0.611,0.306,1.529-0.306,1.529-1.224c4.284,4.284,9.181,8.262,14.688,11.016c-0.307,0.306-0.307,0.918,0,1.53
			c3.366,2.754,6.426,5.508,9.792,7.956c0.306,0.306,0.918,0.612,1.224,0.918C375.302,124.887,375.302,125.805,374.997,126.417z
			 M376.527,121.215c-0.307-0.306-0.307-0.306-0.307-0.306c-0.918-0.918-2.142-1.53-3.06-2.448c-2.143-1.53-3.979-3.06-6.12-4.59
			c0.612-0.306,0.918-0.918,0.612-1.53c-0.307-1.53-0.918-2.448-1.836-3.672c-0.612-0.612-1.53-0.306-1.837,0.612
			c-4.59-3.06-8.873-6.12-12.852-10.098c-0.918-0.918-2.142-0.306-2.448,0.612c-0.306,0-0.611,0.306-0.611,0.306
			c-4.284-2.754-8.568-5.202-12.853-7.956c1.225-0.918,2.754-1.53,3.979-2.142c4.283,3.366,8.874,6.732,13.77,9.18
			c0.307,0.306,0.918,0,1.225-0.306c0,0.306-0.307,0.612-0.307,0.918c0,1.53,2.448,1.836,2.754,0.306c0,0,6.12,3.978,6.732,4.284
			c2.448,1.53,4.59,3.06,7.344,4.59c1.224,0.612,2.143-0.612,1.836-1.836c0,0,0,0,0-0.306c0.307,0.306,0.612,0.306,0.612,0.612
			c0.918,0.612,1.836,0,2.142-0.918c0.918,1.836,1.53,3.672,1.836,5.814c-2.447-1.224-4.59-2.142-7.038-3.06
			c-2.142-0.918-2.754,2.448-0.918,3.366c2.754,1.224,5.509,2.754,8.263,4.284C376.833,119.073,376.527,119.991,376.527,121.215
			L376.527,121.215z"/>
		<path d="M328.791,152.427L328.791,152.427c-0.612-0.612-1.224-0.612-1.53-0.306c0-0.306-0.611-0.612-0.918-0.612
			c-0.306-0.306-0.611-0.612-1.224-0.918c-1.53-0.918-3.061-2.142-4.284-3.06c-2.448-1.836-4.896-3.978-7.344-6.12
			c-1.225-0.918-2.754,0.612-1.53,1.53c2.754,2.754,5.508,5.202,8.568,7.344c1.836,1.53,4.896,4.284,7.344,4.284
			c0.612,0,0.918-0.306,0.918-0.918c0-0.306,0-0.306,0.306-0.612C329.096,153.345,329.096,152.733,328.791,152.427z"/>
		<path d="M338.583,139.575c-3.366,0-6.732-2.448-9.486-3.978c-2.754-1.53-5.202-3.366-7.956-4.896
			c-1.529-0.918-2.754,1.224-1.224,2.142c3.672,2.448,7.038,4.896,11.016,7.038c2.448,1.53,5.202,3.366,8.263,2.142
			C339.806,141.411,339.806,139.575,338.583,139.575z"/>
		<path d="M342.254,134.679c-0.306-0.612-1.53-0.306-1.53,0.306c-5.508-2.754-11.321-5.508-16.83-8.568
			c-1.224-0.612-2.447,1.224-1.224,1.836c5.814,3.672,12.24,7.344,18.666,9.486c0.612,0.306,1.224-0.306,1.224-0.918
			C342.867,135.597,342.867,135.597,342.254,134.679z"/>
	</g>
</g>
<g>
</g>
<g>
</g>
<g>
</g>
<g>
</g>
<g>
</g>
<g>
</g>
<g>
</g>
<g>
</g>
<g>
</g>
<g>
</g>
<g>
</g>
<g>
</g>
<g>
</g>
<g>
</g>
<g>
</g>
</svg>
