<?xml version="1.0" encoding="UTF-8" standalone="no"?>
<!-- Created with Inkscape (http://www.inkscape.org/) -->

<svg
   xmlns:dc="http://purl.org/dc/elements/1.1/"
   xmlns:cc="http://creativecommons.org/ns#"
   xmlns:rdf="http://www.w3.org/1999/02/22-rdf-syntax-ns#"
   xmlns:svg="http://www.w3.org/2000/svg"
   xmlns="http://www.w3.org/2000/svg"
   xmlns:xlink="http://www.w3.org/1999/xlink"
   xmlns:sodipodi="http://sodipodi.sourceforge.net/DTD/sodipodi-0.dtd"
   xmlns:inkscape="http://www.inkscape.org/namespaces/inkscape"
   width="744.09448819"
   height="1052.3622047"
   id="svg4455"
   sodipodi:version="0.32"
   inkscape:version="0.48.4 r9939"
   sodipodi:docname="Glossy_Heart_clip_art.svg"
   inkscape:output_extension="org.inkscape.output.svg.inkscape"
   version="1.1">
  <defs
     id="defs4457">
    <linearGradient
       inkscape:collect="always"
       id="linearGradient5615">
      <stop
         style="stop-color:#f4d7d7;stop-opacity:1;"
         offset="0"
         id="stop5617" />
      <stop
         style="stop-color:#f4d7d7;stop-opacity:0;"
         offset="1"
         id="stop5619" />
    </linearGradient>
    <linearGradient
       id="linearGradient5286">
      <stop
         id="stop5288"
         offset="0"
         style="stop-color:#ffbdbd;stop-opacity:1;" />
      <stop
         id="stop5290"
         offset="1"
         style="stop-color:#ffb4b4;stop-opacity:0.01709402;" />
    </linearGradient>
    <linearGradient
       inkscape:collect="always"
       id="linearGradient5269">
      <stop
         style="stop-color:#501616;stop-opacity:1;"
         offset="0"
         id="stop5271" />
      <stop
         style="stop-color:#501616;stop-opacity:0;"
         offset="1"
         id="stop5273" />
    </linearGradient>
    <linearGradient
       inkscape:collect="always"
       id="linearGradient5256">
      <stop
         style="stop-color:#d40000;stop-opacity:1;"
         offset="0"
         id="stop5258" />
      <stop
         style="stop-color:#d40000;stop-opacity:0;"
         offset="1"
         id="stop5260" />
    </linearGradient>
    <linearGradient
       inkscape:collect="always"
       id="linearGradient5248">
      <stop
         style="stop-color:#ff8080;stop-opacity:1;"
         offset="0"
         id="stop5250" />
      <stop
         style="stop-color:#ff8080;stop-opacity:0;"
         offset="1"
         id="stop5252" />
    </linearGradient>
    <inkscape:perspective
       sodipodi:type="inkscape:persp3d"
       inkscape:vp_x="0 : 526.18109 : 1"
       inkscape:vp_y="0 : 1000 : 0"
       inkscape:vp_z="744.09448 : 526.18109 : 1"
       inkscape:persp3d-origin="372.04724 : 350.78739 : 1"
       id="perspective4463" />
    <filter
       inkscape:collect="always"
       id="filter5022"
       x="-0.18625616"
       width="1.3725123"
       y="-0.11555299"
       height="1.231106">
      <feGaussianBlur
         inkscape:collect="always"
         stdDeviation="17.531555"
         id="feGaussianBlur5024" />
    </filter>
    <clipPath
       clipPathUnits="userSpaceOnUse"
       id="clipPath5030">
      <path
         sodipodi:nodetypes="cscsc"
         d="M 290.95361,680.93361 C 290.95361,680.93361 527.62149,540.93361 493.33578,406.6479 C 459.05007,272.36218 313.33578,303.79075 290.9536,375.21933 C 268.57143,303.79075 122.85714,272.36218 88.571429,406.6479 C 54.285714,540.93361 290.95361,680.93361 290.95361,680.93361 z"
         style="fill:#ff0000;fill-rule:evenodd;stroke:none;stroke-width:1px;stroke-linecap:butt;stroke-linejoin:miter;stroke-opacity:1"
         id="path5032" />
    </clipPath>
    <filter
       inkscape:collect="always"
       id="filter5244"
       x="-0.31153368"
       width="1.6230674"
       y="-0.1900311"
       height="1.3800622">
      <feGaussianBlur
         inkscape:collect="always"
         stdDeviation="25.39744"
         id="feGaussianBlur5246" />
    </filter>
    <linearGradient
       inkscape:collect="always"
       xlink:href="#linearGradient5248"
       id="linearGradient5254"
       x1="462.85715"
       y1="453.79074"
       x2="267.14285"
       y2="529.50507"
       gradientUnits="userSpaceOnUse" />
    <linearGradient
       inkscape:collect="always"
       xlink:href="#linearGradient5256"
       id="linearGradient5262"
       x1="115.71429"
       y1="423.79074"
       x2="324.28571"
       y2="445.21933"
       gradientUnits="userSpaceOnUse" />
    <linearGradient
       inkscape:collect="always"
       xlink:href="#linearGradient5269"
       id="linearGradient5275"
       x1="135.71431"
       y1="409.50504"
       x2="291.40625"
       y2="633.79071"
       gradientUnits="userSpaceOnUse" />
    <radialGradient
       inkscape:collect="always"
       xlink:href="#linearGradient5286"
       id="radialGradient5284"
       cx="220.46748"
       cy="649.43842"
       fx="220.46748"
       fy="649.43842"
       r="205.78566"
       gradientTransform="matrix(1.1505939,-1.0303533,0.9306629,1.0392699,-555.69353,240.12947)"
       gradientUnits="userSpaceOnUse" />
    <filter
       inkscape:collect="always"
       id="filter5453"
       x="-0.31856437"
       width="1.6371287"
       y="-0.25823704"
       height="1.5164741">
      <feGaussianBlur
         inkscape:collect="always"
         stdDeviation="17.570414"
         id="feGaussianBlur5455" />
    </filter>
    <linearGradient
       inkscape:collect="always"
       xlink:href="#linearGradient5615"
       id="linearGradient5621"
       x1="410.90085"
       y1="339.19443"
       x2="463.13199"
       y2="463.55432"
       gradientUnits="userSpaceOnUse" />
    <filter
       inkscape:collect="always"
       id="filter5655">
      <feGaussianBlur
         inkscape:collect="always"
         stdDeviation="5.452887"
         id="feGaussianBlur5657" />
    </filter>
    <filter
       inkscape:collect="always"
       id="filter5667">
      <feGaussianBlur
         inkscape:collect="always"
         stdDeviation="0.45611138"
         id="feGaussianBlur5669" />
    </filter>
    <radialGradient
       inkscape:collect="always"
       xlink:href="#linearGradient5286"
       id="radialGradient5677"
       gradientUnits="userSpaceOnUse"
       gradientTransform="matrix(1.1505939,-1.0303533,0.9306629,1.0392699,-555.69353,238.10916)"
       cx="220.46748"
       cy="649.43842"
       fx="220.46748"
       fy="649.43842"
       r="205.78566" />
    <radialGradient
       inkscape:collect="always"
       xlink:href="#linearGradient5286"
       id="radialGradient5758"
       gradientUnits="userSpaceOnUse"
       gradientTransform="matrix(1.1505939,-1.0303533,0.9306629,1.0392699,-555.69353,238.10916)"
       cx="220.46748"
       cy="649.43842"
       fx="220.46748"
       fy="649.43842"
       r="205.78566" />
    <linearGradient
       inkscape:collect="always"
       xlink:href="#linearGradient5256"
       id="linearGradient5760"
       gradientUnits="userSpaceOnUse"
       x1="115.71429"
       y1="423.79074"
       x2="324.28571"
       y2="445.21933" />
    <linearGradient
       inkscape:collect="always"
       xlink:href="#linearGradient5248"
       id="linearGradient5762"
       gradientUnits="userSpaceOnUse"
       x1="462.85715"
       y1="453.79074"
       x2="267.14285"
       y2="529.50507" />
    <linearGradient
       inkscape:collect="always"
       xlink:href="#linearGradient5269"
       id="linearGradient5764"
       gradientUnits="userSpaceOnUse"
       x1="135.71431"
       y1="409.50504"
       x2="291.40625"
       y2="633.79071" />
    <linearGradient
       inkscape:collect="always"
       xlink:href="#linearGradient5615"
       id="linearGradient5766"
       gradientUnits="userSpaceOnUse"
       x1="410.90085"
       y1="339.19443"
       x2="463.13199"
       y2="463.55432" />
    <filter
       inkscape:collect="always"
       id="filter5812"
       x="-0.10046478"
       width="1.2009296"
       y="-0.11261773"
       height="1.2252355">
      <feGaussianBlur
         inkscape:collect="always"
         stdDeviation="17.227831"
         id="feGaussianBlur5814" />
    </filter>
  </defs>
  <sodipodi:namedview
     id="base"
     pagecolor="#ffffff"
     bordercolor="#666666"
     borderopacity="1.0"
     gridtolerance="10000"
     guidetolerance="10"
     objecttolerance="10"
     inkscape:pageopacity="0.0"
     inkscape:pageshadow="2"
     inkscape:zoom="0.49497475"
     inkscape:cx="133.53632"
     inkscape:cy="534.51578"
     inkscape:document-units="px"
     inkscape:current-layer="layer1"
     showgrid="true"
     inkscape:window-width="1368"
     inkscape:window-height="715"
     inkscape:window-x="0"
     inkscape:window-y="25"
     inkscape:snap-bbox="true"
     inkscape:bbox-nodes="true"
     inkscape:snap-bbox-edge-midpoints="true"
     inkscape:snap-grids="true"
     inkscape:snap-object-midpoints="false"
     showguides="false"
     inkscape:bbox-paths="true"
     inkscape:snap-page="true"
     inkscape:snap-center="true"
     inkscape:window-maximized="1">
    <inkscape:grid
       type="xygrid"
       id="grid3037" />
  </sodipodi:namedview>
  <metadata
     id="metadata4460">
    <rdf:RDF>
      <cc:Work
         rdf:about="">
        <dc:format>image/svg+xml</dc:format>
        <dc:type
           rdf:resource="http://purl.org/dc/dcmitype/StillImage" />
      </cc:Work>
    </rdf:RDF>
  </metadata>
  <g
     inkscape:groupmode="layer"
     id="layer2"
     style="display:inline;" />
  <g
     inkscape:label="Layer 1"
     inkscape:groupmode="layer"
     id="layer1"
     style="display:inline">
    <g
       id="g5842"
       transform="matrix(1.7382261,0,0,1.5811884,-149.60946,-184.6796)">
      <g
         id="g5829">
        <path
           id="path5679"
           style="opacity:0.89639641;fill:#260b0b;fill-opacity:1;fill-rule:evenodd;stroke:none;display:inline;filter:url(#filter5812)"
           d="m 290.95361,680.34188 c 0,0 236.66788,-140 202.38217,-274.28571 C 459.05007,271.77045 313.33578,303.19902 290.9536,374.6276 268.57143,303.19902 122.85714,271.77045 88.571434,406.05617 54.285724,540.34188 290.95361,680.34188 290.95361,680.34188 z"
           sodipodi:nodetypes="cscsc"
           transform="matrix(0.831037,0,0,0.831037,53.200997,81.91551)"
           inkscape:connector-curvature="0" />
        <g
           id="g5730"
           transform="translate(4.0406102,-30.304576)">
          <path
             id="path5277"
             style="fill:#ff0000;fill-rule:evenodd;stroke:none"
             d="m 290.95361,682.36218 c 0,0 236.66788,-140 202.38217,-274.28571 C 459.05007,273.79075 313.33578,305.21932 290.9536,376.6479 268.57143,305.21932 122.85714,273.79075 88.571425,408.07647 54.285715,542.36218 290.95361,682.36218 290.95361,682.36218 z"
             sodipodi:nodetypes="cscsc"
             inkscape:connector-curvature="0" />
          <path
             id="path4465"
             d="m 194.21875,313.19844 c -43.51206,0 -88.51339,25.70089 -105.65625,92.84375 -8.507507,33.32107 -0.321713,67.01399 16.78125,98.8125 27.11972,-5.3225 59.48034,-9.67546 93.375,-9.78125 32.08613,-0.10015 65.50446,3.59821 97,13.84375 66.01141,21.47358 134.20423,9.29632 181.71875,-5.71875 0.009,-0.003 0.0219,0.003 0.0312,0 16.49444,-31.30591 24.23365,-64.4182 15.875,-97.15625 -34.28571,-134.28573 -179.99282,-102.83483 -202.375,-31.40625 -11.19109,-35.71428 -53.23794,-61.4375 -96.75,-61.4375 z m -88.5,192.375 c 0.68681,1.26591 1.41052,2.52148 2.125,3.78125 -0.71529,-1.2612 -1.43745,-2.51389 -2.125,-3.78125 z m 89,104.09375 c 2.56565,2.2344 5.10808,4.44258 7.65625,6.59375 -2.54226,-2.14631 -5.09662,-4.36462 -7.65625,-6.59375 z M 279,672.88594 c 1.81888,1.17042 3.0671,1.94208 4.5,2.84375 -1.36276,-0.85885 -2.803,-1.75169 -4.5,-2.84375 z"
             style="fill:url(#radialGradient5758);fill-opacity:1;fill-rule:evenodd;stroke:none"
             inkscape:connector-curvature="0" />
          <path
             sodipodi:nodetypes="cscssssccc"
             clip-path="url(#clipPath5030)"
             id="path4472"
             d="m 194.21875,313.78125 c -43.51206,0 -88.51339,25.73214 -105.65625,92.875 -31.487599,123.32644 165.09674,251.15499 197.46875,271.25 9.36213,-14.47092 25.43453,-33.74242 22.53125,-56.96875 -4.28572,-34.28571 -45.71429,-45.71429 -80,-90 -34.28572,-44.28571 -52.85267,-100.00447 -27.13839,-121.43304 25.71429,-21.42858 64.27678,-17.14286 81.41964,-24.28571 10.85318,-4.52216 21.71572,-26.18532 28.21875,-41.5 -9.34982,9.04131 -16.40177,19.71774 -20.09375,31.5 -11.19109,-35.71429 -53.23794,-61.4375 -96.75,-61.4375 z"
             style="opacity:0.77083333;fill:url(#linearGradient5760);fill-opacity:1;fill-rule:evenodd;stroke:none;filter:url(#filter5022)"
             inkscape:connector-curvature="0" />
          <path
             id="path5034"
             d="m 330,380.93361 c 0.47619,0 0.95238,0 0,0 z"
             style="fill:none;stroke:#000000;stroke-width:1px;stroke-linecap:butt;stroke-linejoin:miter;stroke-opacity:1"
             inkscape:connector-curvature="0" />
          <path
             sodipodi:nodetypes="czzssssc"
             id="path5038"
             d="m 331.42857,378.07647 c 0,0 -3.54213,57.3005 -5.71428,98.57143 -2.17215,41.27093 -5.71428,75.71428 -8.57143,105.71428 -2.72234,28.58459 -41.42857,50 -31.42857,68.57143 10,18.57143 57.14286,-7.14285 122.85714,-72.85714 65.71429,-65.71429 77.14286,-150 65.71429,-185.71429 -11.42857,-35.71428 -70,-64.28571 -98.57143,-54.28571 -28.57143,10 -45.71429,42.85714 -44.28572,40 z"
             style="opacity:0.84583285;fill:url(#linearGradient5762);fill-opacity:1;fill-rule:evenodd;stroke:none;filter:url(#filter5244)"
             inkscape:connector-curvature="0" />
          <path
             id="path5264"
             d="m 198.71875,497.09375 c -33.89466,0.10579 -66.25528,4.45875 -93.375,9.78125 51.8229,96.35122 185.625,175.5 185.625,175.5 0,0 135.33717,-80.05084 186.5,-177.15625 -47.51573,15.01916 -115.72554,27.19658 -181.75,5.71875 -31.49554,-10.24554 -64.91387,-13.9439 -97,-13.84375 z"
             style="opacity:0.25416667;fill:url(#linearGradient5764);fill-opacity:1;fill-rule:evenodd;stroke:none"
             inkscape:connector-curvature="0" />
          <path
             id="path5292"
             d="m 388.38551,332.39054 c -16.45288,0 -31.8365,4.46555 -44.98227,12.23044 53.49736,3.74847 95.7579,47.53121 95.7579,100.95906 0,18.22252 -4.91667,35.33004 -13.51785,50.10618 29.62002,-13.72848 50.13191,-43.30422 50.13192,-77.55386 0,-47.32186 -39.14899,-85.74183 -87.3897,-85.74182 z"
             style="opacity:0.75;fill:#f4d7d7;fill-opacity:1;fill-rule:nonzero;stroke:none;filter:url(#filter5453)"
             inkscape:connector-curvature="0" />
          <path
             transform="matrix(0.4061408,0,0,0.4061408,268.49215,216.58608)"
             style="fill:url(#linearGradient5766);fill-opacity:1;fill-rule:nonzero;stroke:none;filter:url(#filter5655)"
             d="m 388.38551,332.39054 c -16.45288,0 -31.8365,4.46555 -44.98227,12.23044 53.49736,3.74847 95.7579,47.53121 95.7579,100.95906 0,18.22252 -4.91667,35.33004 -13.51785,50.10618 29.62002,-13.72848 50.13191,-43.30422 50.13192,-77.55386 0,-47.32186 -39.14899,-85.74183 -87.3897,-85.74182 z"
             id="path5457"
             inkscape:connector-curvature="0" />
          <path
             transform="matrix(0.6558983,0,0,0.6558983,151.14883,120.69574)"
             d="m 489.92398,438.18943 -53.15879,-72.87342 18.12609,88.18673 -18.92268,-88.19481 -19.30977,87.93513 18.58533,-88.26651 -53.40678,72.47875 52.87976,-73.07614 -78.26929,44.49014 78.03082,-45.25024 -89.59833,8.80878 89.68963,-9.60016 -85.435,-28.3957 85.84029,27.70987 -66.49918,-60.69031 67.14838,60.22863 -36.06505,-82.49101 36.84591,82.33329 0.60506,-90.02826 0.17245,90.20178 37.17054,-81.99881 -36.53084,82.47357 67.3089,-59.79102 -66.9176,60.48493 85.80894,-27.24482 -85.73371,28.03789 89.47183,10.01226 -89.72567,-9.25716 77.66423,45.53813 -78.20326,-44.95155 z"
             inkscape:randomized="0"
             inkscape:rounded="0"
             inkscape:flatsided="false"
             sodipodi:arg2="1.3714977"
             sodipodi:arg1="0.94926971"
             sodipodi:r2="1.9157914"
             sodipodi:r1="91.946075"
             sodipodi:cy="363.43814"
             sodipodi:cx="436.38589"
             sodipodi:sides="15"
             id="path5661"
             style="fill:#ffffff;fill-opacity:1;fill-rule:nonzero;stroke:none;filter:url(#filter5667)"
             sodipodi:type="star" />
        </g>
      </g>
    </g>
  </g>
</svg>
