<?xml version="1.0" encoding="UTF-8" standalone="no"?>
<!-- Created with Inkscape (http://www.inkscape.org/) -->
<svg
   xmlns:dc="http://purl.org/dc/elements/1.1/"
   xmlns:cc="http://creativecommons.org/ns#"
   xmlns:rdf="http://www.w3.org/1999/02/22-rdf-syntax-ns#"
   xmlns:svg="http://www.w3.org/2000/svg"
   xmlns="http://www.w3.org/2000/svg"
   xmlns:xlink="http://www.w3.org/1999/xlink"
   xmlns:sodipodi="http://sodipodi.sourceforge.net/DTD/sodipodi-0.dtd"
   xmlns:inkscape="http://www.inkscape.org/namespaces/inkscape"
   height="305.43347"
   id="svg7954"
   inkscape:version="0.46dev+devel"
   sodipodi:docbase="C:\Documents and Settings\admin\Desktop"
   sodipodi:docname="Anonymous_heart_no_text.svg"
   sodipodi:version="0.32"
   width="355.83426"
   inkscape:output_extension="org.inkscape.output.svg.inkscape"
   version="1.0"
   inkscape:export-filename="/Users/johnolsen/Pictures/by author build/assorted authors/heart_roberto_u._01.png"
   inkscape:export-xdpi="90"
   inkscape:export-ydpi="90">
  <metadata
     id="metadata3">
    <rdf:RDF>
      <cc:Work
         rdf:about="">
        <dc:title>heart</dc:title>
        <dc:description>cristal heart</dc:description>
        <dc:subject>
          <rdf:Bag>
            <rdf:li>heart</rdf:li>
            <rdf:li>valentine</rdf:li>
            <rdf:li>love</rdf:li>
          </rdf:Bag>
        </dc:subject>
        <dc:publisher>
          <cc:Agent
             rdf:about="http://www.openclipart.org/">
            <dc:title>Open Clip Art Library</dc:title>
          </cc:Agent>
        </dc:publisher>
        <dc:creator>
          <cc:Agent>
            <dc:title>roberto u.</dc:title>
          </cc:Agent>
        </dc:creator>
        <dc:rights>
          <cc:Agent>
            <dc:title>roberto u.</dc:title>
          </cc:Agent>
        </dc:rights>
        <dc:date />
        <dc:format>image/svg+xml</dc:format>
        <dc:type
           rdf:resource="http://purl.org/dc/dcmitype/StillImage" />
        <cc:license
           rdf:resource="http://web.resource.org/cc/PublicDomain" />
        <dc:language>en</dc:language>
      </cc:Work>
      <cc:License
         rdf:about="http://web.resource.org/cc/PublicDomain">
        <cc:permits
           rdf:resource="http://web.resource.org/cc/Reproduction" />
        <cc:permits
           rdf:resource="http://web.resource.org/cc/Distribution" />
        <cc:permits
           rdf:resource="http://web.resource.org/cc/DerivativeWorks" />
      </cc:License>
    </rdf:RDF>
  </metadata>
  <defs
     id="defs7956">
    <linearGradient
       id="linearGradient7199">
      <stop
         id="stop7201"
         offset="0"
         style="stop-color:#fefefe;stop-opacity:1;" />
      <stop
         id="stop7203"
         offset="1"
         style="stop-color:#fefefe;stop-opacity:0;" />
    </linearGradient>
    <linearGradient
       gradientUnits="userSpaceOnUse"
       id="linearGradient7952"
       inkscape:collect="always"
       x1="478"
       x2="472.11472"
       xlink:href="#linearGradient7199"
       y1="1272.3622"
       y2="1121.9014" />
    <linearGradient
       id="linearGradient4572">
      <stop
         id="stop4574"
         offset="0"
         style="stop-color:#c71907;stop-opacity:1;" />
      <stop
         id="stop4576"
         offset="1"
         style="stop-color:#e8a06c;stop-opacity:1.0000000" />
    </linearGradient>
    <linearGradient
       gradientTransform="matrix(0.992515,0.122121,-0.122121,0.992515,360.6788,326.6466)"
       gradientUnits="userSpaceOnUse"
       id="linearGradient7950"
       inkscape:collect="always"
       x1="232.56607"
       x2="364"
       xlink:href="#linearGradient4572"
       y1="945.0282"
       y2="945.0282" />
    <linearGradient
       id="linearGradient7100">
      <stop
         id="stop7102"
         offset="0"
         style="stop-color:#c71907;stop-opacity:1;" />
      <stop
         id="stop7104"
         offset="1"
         style="stop-color:#e38d5e;stop-opacity:1.0000000" />
    </linearGradient>
    <linearGradient
       gradientTransform="translate(7.976042,10.00006)"
       gradientUnits="userSpaceOnUse"
       id="linearGradient7948"
       inkscape:collect="always"
       x1="478.02396"
       x2="368.95343"
       xlink:href="#linearGradient7100"
       y1="1282.1924"
       y2="1103.1924" />
  </defs>
  <sodipodi:namedview
     bordercolor="#666666"
     borderopacity="1.0"
     id="base"
     inkscape:current-layer="layer1"
     inkscape:cx="177.91713"
     inkscape:cy="152.71674"
     inkscape:document-units="px"
     inkscape:pageopacity="0.0"
     inkscape:pageshadow="2"
     inkscape:window-height="650"
     inkscape:window-width="787"
     inkscape:window-x="171"
     inkscape:window-y="61"
     inkscape:zoom="1.4307535"
     pagecolor="#ffffff"
     showgrid="false" />
  <g
     id="layer1"
     inkscape:groupmode="layer"
     inkscape:label="Livello 1"
     transform="translate(-159.22567,-166.78836)">
    <g
       id="g7942"
       style="display:inline"
       transform="translate(-141.3572,-916.5196)">
      <path
         d="M 471.65396,1150.3573 C 404.52479,1062.2749 339.01748,1098.0369 323.33003,1157.8886 C 286.46854,1298.5247 471.54184,1372.8885 471.54184,1372.8886 C 471.54184,1372.8886 672.11254,1297.7827 632.20214,1156.7323 C 616.71055,1101.9823 538.16793,1061.9797 471.65396,1150.3573 z"
         id="path6329"
         sodipodi:nodetypes="cscsc"
         style="fill:url(#linearGradient7948);fill-opacity:1;fill-rule:evenodd;stroke:#6a0000;stroke-width:9.34700012;stroke-linecap:butt;stroke-linejoin:miter;stroke-miterlimit:4;stroke-dasharray:none;stroke-opacity:1" />
      <path
         d="M 468.09033,1358.0669 L 475.31873,1365.7866 C 475.31873,1365.7866 613.48013,1292.4832 612.99874,1255.4437 C 612.51733,1218.4043 612.57324,1248.3731 612.57324,1248.3731 C 612.57324,1248.3731 610.88223,1277.8379 468.09033,1358.0669 z"
         id="path7108"
         style="opacity:0.57619048;fill:url(#linearGradient7950);fill-opacity:1;fill-rule:evenodd;stroke:none;stroke-width:1px;stroke-linecap:butt;stroke-linejoin:miter;stroke-opacity:1;display:inline" />
      <path
         d="M 471.75322,1146.4988 C 399.98624,1053.5461 329.95316,1091.2855 313.18189,1154.4466 C 273.77372,1302.8587 471.63336,1381.3343 471.63336,1381.3344 C 471.63336,1381.3344 686.06107,1302.0757 643.39335,1153.2263 C 626.83147,1095.449 542.8625,1053.2346 471.75322,1146.4988 z"
         id="path7112"
         sodipodi:nodetypes="cscsc"
         style="fill:none;fill-opacity:1;fill-rule:evenodd;stroke:#440000;stroke-width:14.81405163;stroke-linecap:butt;stroke-linejoin:miter;stroke-miterlimit:4;stroke-dasharray:none;stroke-opacity:1;display:inline" />
      <path
         d="M 326,1205.3622 C 321.76367,1176.6418 331.6372,1146.3757 350.63299,1124.6908 C 364.28788,1111.9998 384.58369,1102.9801 403.19348,1108.8457 C 415.04729,1113.0502 425.97777,1119.6223 436.61212,1126.1941 C 451.50719,1138.0815 462.36736,1154.2236 472.11032,1170.3721 C 474.23628,1176.2191 470.38532,1163.3616 509.20107,1124.196 C 529.29059,1108.9954 557.91918,1100.6131 581.54963,1112.6024 C 596.89148,1120.4272 608.94674,1133.3303 618.83493,1147.1944 C 622.05872,1161.8795 603.1783,1165.2219 593.944,1171.5177 C 536.05079,1201.0041 469.42265,1205.998 405.51605,1203.4303 C 379.03734,1202.3604 352.18727,1199.9138 326,1205.3622 z"
         id="path7116"
         sodipodi:nodetypes="ccccccccccc"
         style="opacity:0.92857139;fill:url(#linearGradient7952);fill-opacity:1;fill-rule:evenodd;stroke:none;stroke-width:1px;stroke-linecap:butt;stroke-linejoin:miter;stroke-opacity:1" />
    </g>
  </g>
</svg>
